GCD Engine/transcript
# //  ModelSim SE-64 10.5 Feb 12 2016 Linux 3.10.0-1062.9.1.el7.x86_64
# //
# //  Copyright 1991-2016 Mentor Graphics Corporation
# //  All Rights Reserved.
# //
# //  ModelSim SE-64 and its associated documentation contain trade
# //  secrets and commercial or financial information that are the property of
# //  Mentor Graphics Corporation and are privileged, confidential,
# //  and exempt from disclosure under the Freedom of Information Act,
# //  5 U.S.C. Section 552. Furthermore, this information
# //  is prohibited from disclosure under the Trade Secrets Act,
# //  18 U.S.C. Section 1905.
# //
# vsim tbgcd -novopt -t ns 
# Start time: 17:43:25 on May 07,2020
# ** Warning: (vsim-8891) All optimizations are turned off because the -novopt switch is in effect. This will cause your simulation to run very slowly. If you are using this switch to preserve visibility for Debug or PLI features please see the User's Manual section on Preserving Object Visibility with vopt.
# Loading sv_std.std
# Loading work.tbgcd
# Loading work.gcd
# ** Warning: (vsim-PLI-3691) ./src/tbgcd.sv(52): Expected a system task, not a system function '$fscanf'.
#    Time: 0 ns  Iteration: 0  Instance: /tbgcd File: ./src/tbgcd.sv
add wave -r sim:/tbgcd/*
run 1000000
# ** Warning: (vsim-8315) ./src/gcd.sv(33): No condition is true in the unique/priority if/case statement.
#    Time: 0 ns  Iteration: 0  Instance: /tbgcd/gcd
# ** Warning: (vsim-8315) ./src/gcd.sv(33): No condition is true in the unique/priority if/case statement.
#    Time: 0 ns  Iteration: 1  Instance: /tbgcd/gcd
# a_in=      3430   b_in=      2060   result=        10   time=               29200
# a_in=      3435   b_in=   2342340   result=        15   time=              309000
# a_in=     13435   b_in=   3434290   result=         5   time=              426000
# a_in=  23232502   b_in= 343535354   result=         2   time=              451800
# a_in=      5975   b_in=   3859034   result=         1   time=              721600
# a_in=      1930   b_in=        34   result=         2   time=              747400
# a_in=        39   b_in=        13   result=        13   time=              748800
# a_in=         9   b_in=         3   result=         3   time=              750200
# a_in=        14   b_in=        92   result=         2   time=              754800
# a_in=       210   b_in=       124   result=         2   time=              759800
# a_in=    116150   b_in=    232704   result=       202   time=              876400
# a_in=    116150   b_in=    232704   result=       202   time=              993000
# ** Note: $stop    : ./src/tbgcd.sv(68)
#    Time: 993200 ns  Iteration: 0  Instance: /tbgcd
# Break in Module tbgcd at ./src/tbgcd.sv line 68
exit
# End time: 17:50:16 on May 07,2020, Elapsed time: 0:06:51
# Errors: 0, Warnings: 4
