Glitchy:Glitchless Finite State Machine Design/Source Files and Waveforms/Glitchy_FSM/dump.vcd
$date
	Fri Apr 24 19:56:14 2020
$end
$version
	ModelSim Version 10.5
$end
$timescale
	1ps
$end

$scope module tbglitchy $end
$var reg 1 ! rd $end
$var reg 1 " ds $end

$scope module glitchy $end
$var wire 1 # go $end
$var wire 1 $ ws $end
$var wire 1 % clk $end
$var wire 1 & reset_n $end
$var wire 1 ' rd $end
$var wire 1 ( ds $end
$var wire 1 ) n4 $end
$var wire 1 * n5 $end
$var wire 1 + n6 $end
$var wire 1 , n7 $end
$var wire 1 - n8 $end
$var wire 1 . n9 $end
$var wire 1 / glitch_ns [1] $end
$var wire 1 0 glitch_ns [0] $end

$scope module glitch_ps_reg[1] $end
$upscope $end

$scope module glitch_ps_reg[0] $end
$upscope $end

$scope module U9 $end
$upscope $end

$scope module U10 $end
$upscope $end

$scope module U11 $end
$upscope $end

$scope module U12 $end
$upscope $end

$scope module U13 $end
$upscope $end

$scope module U14 $end
$upscope $end
$upscope $end
$upscope $end

$scope begin std $end
$upscope $end
$enddefinitions $end
#0
$dumpvars
x!
x"
x)
x*
x+
x,
x-
x.
x0
x/
0&
0%
0$
0#
x'
x(
$end
#59
0-
0*
#81
1,
#94
0+
#134
1)
1.
#141
00
0'
0!
#153
0(
0"
#258
0/
#500
1%
#1000
0%
#1500
1%
#1600
1&
#2000
0%
#2500
1%
#2600
1#
#2680
10
#3000
0%
#3500
1%
#3600
1$
0#
#3636
0)
#3679
00
#3707
1-
#3772
1/
#3787
1'
1!
#4000
0%
#4500
1%
#4636
0.
#4655
1(
1"
#4659
1)
#4686
0(
0"
#4707
1*
#4720
0'
0!
#4731
0-
#4732
0,
#4745
1+
#4777
0/
#4800
10
1'
1!
#5000
0%
#5500
1%
#5636
0)
#5659
1.
#5663
1,
#5676
0+
#5707
1-
#5723
00
#5731
0*
#5875
1/
#6000
0%
#6500
1%
#6636
0.
#6655
1(
1"
#6659
1)
#6686
0(
0"
#6707
1*
#6720
0'
0!
#6731
0-
#6732
0,
#6745
1+
#6777
0/
#6800
10
1'
1!
#7000
0%
#7500
1%
#7636
0)
#7659
1.
#7663
1,
#7676
0+
#7707
1-
#7723
00
#7731
0*
#7875
1/
#8000
0%
#8500
1%
#8636
0.
#8655
1(
1"
#8659
1)
#8686
0(
0"
#8707
1*
#8720
0'
0!
#8731
0-
#8732
0,
#8745
1+
#8777
0/
#8800
10
1'
1!
#9000
0%
#9500
1%
#9636
0)
#9659
1.
#9663
1,
#9676
0+
#9707
1-
#9723
00
#9731
0*
#9875
1/
